{
  "Target": "book.min.92b28337361d2bcca5e0ffaff5092dda7140e89d9a7a7a4dcc6055fd7d702ace.css",
  "MediaType": "text/css",
  "Data": {
    "Integrity": "sha256-krKDNzYdK8yl4P+v9Qkt2nFA6J2aenpNzGBV/X1wKs4="
  }
}